…
In order to do these checks we need access to the fitted (predicted)
values and the residuals. We can use `broom::augment` to calculate
these.

-   In the code chunk below titled `augment`, replace “verbatim” with
    “r” just before the code chunk title.

``` r
slr_aug <- augment(slr_mod, hfi_2016)

slr_aug
```

    ## # A tibble: 162 × 125
    ##     year ISO_code countries  region               pf_rol_procedural pf_rol_civil
    ##    <dbl> <chr>    <chr>      <chr>                            <dbl>        <dbl>
    ##  1  2016 ALB      Albania    Eastern Europe                    6.66         4.55
    ##  2  2016 DZA      Algeria    Middle East & North…             NA           NA   
    ##  3  2016 AGO      Angola     Sub-Saharan Africa               NA           NA   
    ##  4  2016 ARG      Argentina  Latin America & the…              7.10         5.79
    ##  5  2016 ARM      Armenia    Caucasus & Central …             NA           NA   
    ##  6  2016 AUS      Australia  Oceania                           8.44         7.53
    ##  7  2016 AUT      Austria    Western Europe                    8.97         7.87
    ##  8  2016 AZE      Azerbaijan Caucasus & Central …             NA           NA   
    ##  9  2016 BHS      Bahamas    Latin America & the…              6.93         6.01
    ## 10  2016 BHR      Bahrain    Middle East & North…             NA           NA   
    ## # ℹ 152 more rows
    ## # ℹ 119 more variables: pf_rol_criminal <dbl>, pf_rol <dbl>,
    ## #   pf_ss_homicide <dbl>, pf_ss_disappearances_disap <dbl>,
    ## #   pf_ss_disappearances_violent <dbl>, pf_ss_disappearances_organized <dbl>,
    ## #   pf_ss_disappearances_fatalities <dbl>, pf_ss_disappearances_injuries <dbl>,
    ## #   pf_ss_disappearances <dbl>, pf_ss_women_fgm <dbl>,
    ## #   pf_ss_women_missing <dbl>, pf_ss_women_inheritance_widows <dbl>, …
…
